<svg xmlns="http://www.w3.org/2000/svg" width="1402.776" height="210.925" viewBox="0 0 1402.776 210.925">
  <path id="Path_1" data-name="Path 1" d="M43.72,299S151.628,101.152,400.9,89.624s432.1,155.44,640.629,155.44,387.731-155.44,387.731-155.44h15.9V299H43.72Z" transform="translate(-42.878 -88.575)" fill="#fff" stroke="rgba(112,112,112,0)" stroke-width="1"/>
</svg>
